[
	{
		"_id": "5d713995b721c3bb38c1f5d0",
		"user": "5d7a514b5d2c12c7449be045",
		"name": "Cough"
	},
	{
		"_id": "5d713995b721c3bb38c1f5d0",
		"user": "5d7a514b5d2c12c7449be045",
		"name": "Blood pressure"
	},
	{
		"_id": "5d713995b721c3bb38c1f5d0",
		"user": "5d7a514b5d2c12c7449be045",
		"name": "Catarrh"	},
	{
		"_id": "5d713995b721c3bb38c1f5d0",
		"user": "5d7a514b5d2c12c7449be045",
		"name": "Cold"	
	}
]
